{
  "model": "CandidateSources",
  "subtitle": "Edit candidate source",
  "settings": {
    "i18n": {
      "el": {
        "Set the name of this item": "Ορίστε την ονομασία του στοιχείου.",
        "Write a short description for this item": "Γράψτε μία σύντομη περιγραφή για αυτό το στοιχείο",
        "Edit candidate source": "Επεξεργασία στοιχείων πηγής υποψηφίων φοιτητών",
        "External Source": "Χρήση εξωτερικής διεύθυνσης για παραλαβή δεδομένων",
        "Source URL": "Ηλεκτρονική διεύθυνση παραλαβής δεδομένων υποψηφίων",
        "Keychain Identifier": "Αναγνωριστικό όνομα αλυσίδας κωδικών",
        "Set the source URL": "Ορίστε την ηλ. διεύθυνση παραλαβής δεδομένων των φοιτητών.",
        "Set the keychain identifier": "Ορίστε το όνομα του στοιχείου της αλυσίδας κωδικών που έχει δημιουργηθεί για αυτήν την πηγή.",
        "Set an alternative name for this item": "Ορίστε ένα εναλλακτικό όνομα γι'αυτό το στοιχείο.",
        "Schema URL": "Ηλεκτρονική διεύθυνση συνδεόμενου αρχείου παραμετροποίησης"
      }
    }
  },
  "components": [
    {
      "type": "fieldset",
      "components": [
        {
          "label": "HTML",
          "tag": "h5",
          "className": "font-weight-normal",
          "content": "{{form.subtitle}}",
          "refreshOnChange": false,
          "tableView": false,
          "key": "subtitle",
          "type": "htmlelement",
          "input": false
        },
        {
          "columns": [
            {
              "components": [
                {
                  "label": "Name",
                  "labelPosition": "top",
                  "widget": {
                    "type": "input"
                  },
                  "validate": {
                    "required": true
                  },
                  "key": "name",
                  "type": "textfield",
                  "input": true,
                  "disabled": false,
                  "description": "Set the name of this item"
                }
              ],
              "width": 6
            },
            {
              "components": [
                {
                  "label": "AlternateName",
                  "labelPosition": "top",
                  "widget": {
                    "type": "input"
                  },
                  "validate": {
                    "required": false
                  },
                  "key": "alternateName",
                  "type": "textfield",
                  "input": true,
                  "description": "Set an alternative name for this item"
                }
              ],
              "width": 6
            },
            {
              "components": [
                {
                  "label": "Schema URL",
                  "labelPosition": "top",
                  "widget": {
                    "type": "input"
                  },
                  "validate": {
                    "required": false
                  },
                  "disabled": true,
                  "key": "schemaURL",
                  "type": "textfield",
                  "input": true
                }
              ],
              "width": 6
            },
            {
              "components": [
                {
                  "label": "Description",
                  "labelPosition": "top",
                  "widget": {
                    "type": "input"
                  },
                  "validate": {
                    "required": false
                  },
                  "key": "description",
                  "type": "textarea",
                  "description": "Write a short description for this item",
                  "input": true
                },
                {
                  "label": "External Source",
                  "defaultValue": false,
                  "validate": {
                    "unique": false,
                    "multiple": false
                  },
                  "key": "externalSource",
                  "type": "checkbox",
                  "input": true
                }
              ],
              "width": 12
            },
            {
              "components": [
                {
                  "label": "Source URL",
                  "tableView": true,
                  "key": "sourceURL",
                  "type": "url",
                  "input": true,
                  "validate": {
                    "required": true
                  },
                  "customConditional": "show = !!data.externalSource;",
                  "description": "Set the source URL"
                }
              ],
              "width": 6
            },
            {
              "components": [
                {
                  "label": "Keychain Identifier",
                  "labelPosition": "top",
                  "widget": {
                    "type": "input"
                  },
                  "validate": {
                    "required": false
                  },
                  "key": "keychainIdentifier",
                  "type": "textfield",
                  "input": true,
                  "disabled": false,
                  "customConditional": "show = !!data.externalSource;",
                  "description": "Set the keychain identifier"
                }
              ],
              "width": 6
            }
          ],
          "customClass": "text-dark",
          "hideLabel": true,
          "type": "columns",
          "input": false
        }
      ]
    },
    {
      "type": "button",
      "label": "Submit",
      "key": "submit",
      "disableOnInvalid": true,
      "input": true
    }
  ]
}
