{
	"model": "StudyPrograms",
	"settings": {
		"i18n": {
			"el": {
        "Name of the new program": "Ονομασία του νέου προγράμματος",
        "Copy study program": "Αντιγραφή προγράμματος σπουδών",
        "You can copy the study program to a new one. All properties of the program will be copied (courses, specialties, rules, groups, etc.)": "Μπορείτε να αντιγράψετε το πρόγραμμα σπουδών σε ένα νέο. Θα αντιγραφούν όλες οι ιδιότητες του προγράμματος (μαθήματα, κατευθύνσεις, προϋποθέσεις, ομάδες κλπ)",
        "The copying process can take several minutes. You can navigate to study program page to see the progress of the process": "Η διαδικασία αντιγραφής μπορεί να διαρκέσει αρκετά λεπτά. Μπορείτε να μεταβείτε στη σελίδα του προγράμματος σπουδών για να δείτε την πορεία της αντιγραφής"
      }
		}
	},
	"components": [
    {
      "label": "HTML",
      "content": "<h5>{{instance.t('Copy study program')}}</h5><p class=\"text-secondary\">{{instance.t('You can copy the study program to a new one. All properties of the program will be copied (courses, specialties, rules, groups, etc.)')}}</p>",
      "refreshOnChange": false,
      "key": "html",
      "type": "htmlelement",
      "input": false,
      "tableView": false,
      "customConditional": "show = (data.$state != 4)"
    },

		{


          "components": [
            {
              "columns": [
                {
                  "components": [
                    {
                      "label": "Name of the new program",
                      "labelPosition": "top",
                      "widget": {
                        "type": "input"
                      },
                      "validate": {
                        "required": true
                      },
                      "key": "description",
                      "type": "textfield",
                      "input": true
                    }
                  ],
                  "width": 8
                },
                {
                  "components": [
                    {
                      "label": "id",
                      "labelPosition": "top",
                      "widget": {
                        "type": "input"
                      },
                      "validate": {
                        "required": true
                      },
                      "key": "id",
                      "type": "textfield",
                      "input": true,
                      "hidden": true
                    }
                  ],
                  "width": 8
                }
              ],
              "customClass": "text-dark",
              "hideLabel": true,
              "type": "columns",
              "input": false
            }

          ]

		},
    {
      "label": "HTML",
      "content": "<p class=\"text-secondary\">{{instance.t('The copying process can take several minutes. You can navigate to study program page to see the progress of the process')}}</p>",
      "refreshOnChange": false,
      "key": "html",
      "type": "htmlelement",
      "input": false,
      "tableView": false,
      "customConditional": "show = (data.$state != 4)"
    }
  ]
}
