{
  "model": "courseClasses",
  "settings": {
    "i18n": {
      "el": {
        "Course Name": "Τίτλος μαθήματος",
        "Keep better grade": "Διατήρηση μεγαλύτερου βαθμού",
        "Select if the rules for this course will keep the better grade of the courses defined in rules": "Επιλέξτε αν ο κανόνας για αυτό το μάθημα θα κρατήσει τον μεγαλύτερο βαθμό από τα μαθήματα που ορίστηκαν στους κανόνες αντιστοιχίας.",
        "Rule Details":"Στοιχεία αντιστοιχίας",
        "Active" : "Ενεργή",
        "Select if this course transfer rule is active. Only active course rules can be applied to students": "Επιλέξτε εάν αυτός ο κανόνας μαθήματος είναι ενεργός. Μόνο οι ενεργοί κανόνες μπορούν να εφαρμοστούν στους φοιτητές",
        "Write the notes that will be transferred to student card after applying the rule": "Γράψτε τις σημειώσεις που θα μεταφερθούν στην καρτέλα του μαθήματος του φοιτητή μετά την εφαρμογή της αντιστοιχίας"
      }
    }
  },
  "components": [
    {
      "type": "fieldset",
      "legend": "Course Details",
      "components": [
        {
          "customClass": "text-dark",
          "hideLabel": true,
          "type": "columns",
          "input": false,
          "columns": [
            {
              "components": [
                {
                  "label": "Course ID",
                  "labelPosition": "top",
                  "disabled": true,
                  "widget": {
                    "type": "input"
                  },
                  "validate": {
                    "required": false
                  },
                  "key": "course.displayCode",
                  "type": "textfield",
                  "input": true
                }
              ],
              "width": 2
            },
            {
              "components": [
                {
                  "label": "Course Name",
                  "labelPosition": "top",
                  "disabled": true,
                  "widget": {
                    "type": "input"
                  },
                  "validate": {
                    "required": false
                  },
                  "key": "course.name",
                  "type": "textfield",
                  "input": true
                }
              ],
              "width": 5
            }
          ]
        }
      ]
    },

    {
      "type": "fieldset",
      "legend": "Rule Details",
      "components": [
        {
          "customClass": "text-dark",
          "hideLabel": true,
          "type": "columns",
          "input": false,
          "columns": [

            {
              "components": [
                {
                  "label": "Active",
                  "labelPosition": "top",
                  "widget": "choicesjs",
                  "searchEnabled": false,
                  "data": {
                    "values": [
                      {
                        "label": "No",
                        "value": "0"
                      },
                      {
                        "label": "Yes",
                        "value": "1"
                      }
                    ]
                  },
                  "validate": {
                    "required": true
                  },
                  "calculateValue": "value = value ? 1 : 0",
                  "defaultValue": "0",
                  "selectThreshold": 0.3,
                  "key": "active",
                  "type": "select",
                  "input": true,
                  "description": "Select if this course transfer rule is active. Only active course rules can be applied to students"
                }
              ],
              "width": 6
            },
            {
              "components": [
                {
                  "label": "Keep better grade",
                  "labelPosition": "top",
                  "widget": "choicesjs",
                  "searchEnabled": false,
                  "data": {
                    "values": [
                      {
                        "label": "No",
                        "value": "0"
                      },
                      {
                        "label": "Yes",
                        "value": "1"
                      }
                    ]
                  },
                  "validate": {
                    "required": true
                  },
                  "calculateValue": "value = value ? 1 : 0",
                  "defaultValue": "0",
                  "selectThreshold": 0.3,
                  "key": "keepBetterGrade",
                  "type": "select",
                  "input": true,
                  "description": "Select if the rules for this course will keep the better grade of the courses defined in rules"
                }
              ],
              "width": 6
            },
            {
              "components": [
                {
                  "label": "Notes",
                  "labelPosition": "top",
                  "widget": {
                    "type": "input"
                  },
                  "validate": {
                    "required": false,
                    "maxLength": 100
                  },
                  "key": "notes",
                  "type": "textarea",
                  "input": true,
                  "description": "Write the notes that will be transferred to student card after applying the rule"
                }
              ],
              "width": 12
            }
          ]
        }
      ]
    },

    {
      "type": "button",
      "label": "Submit",
      "key": "submit",
      "disableOnInvalid": true,
      "input": true
    }
  ]
}
