{
  "model": "ExceptHoursSpecifications",
  "settings": {
    "i18n": {
      "el": {
        "Start Date": "Από",
        "End Date": "Έως",
        "Event Status": "Κατάσταση γεγονότων",
        "Set date that the holidays end": "Ορίστε την ημερομηνία έως την οποία ισχύει η αργία",
        "Set date that the holidays start": "Ορίστε την ημερομηνία απο την οποία ξεκινάει η αργία",
        "Set the title of this except date": "Ορίστε τον τίτλο της αργίας",
        "Write a short description for the except date": "Γράψτε μία σύντομη περιγραφή για την αργία",
        "Auto update the status of events that occur during except hours": "Αυτόματη ενημέρωση της κατάστασης των γεγονότων που συμπίπτουν με την αργία",
        "Select the academic year that this except date refers to": "Επιλέξτε το ακαδημαϊκό έτος το οποίο αφορά η αργία",
        "Select the event status that will be assigned to events that occur during except hours": "Επιλέξτε την κατάσταση που θα εχουν τα γεγονότα που συμπίπτουν με την αργία."
      }
    }
  },
  "components": [
    {
      "type": "fieldset",
      "components": [
        {
          "customClass": "text-dark",
          "hideLabel": true,
          "type": "columns",
          "input": false,
          "columns": [
            {
              "components": [
                {
                  "label": "Start Date",
                  "description": "Set date that the holidays start",
                  "tableView": false,
                  "format": "dd-MM-yyyy",
                  "enableTime": false,
                  "validate": {
                    "required": true,
                    "custom": "valid = !data.validThrough || (input && moment(input).isBefore(data.validThrough));"
                  },
                  "errors": {
                    "custom": "Start date cannot succeed end date"
                  },
                  "key": "validFrom",
                  "type": "datetime",
                  "input": true,
                  "widget": {
                    "type": "calendar"
                  }
                }
              ],
              "width": 6
            },
            {
              "components": [
                {
                  "label": "End Date",
                  "description": "Set date that the holidays end",
                  "format": "dd-MM-yyyy",
                  "tableView": false,
                  "enableTime": false,
                  "validate": {
                    "required": true,
                    "custom": "valid = !data.validFrom || (input && moment(data.validFrom).isBefore(input));"
                  },
                  "errors": {
                    "custom": "End date cannot precede start date"
                  },
                  "key": "validThrough",
                  "type": "datetime",
                  "input": true,
                  "widget": {
                    "type": "calendar"
                  },
                  "calculateValue": "value = moment(value).endOf('day').toDate()"
                }
              ],
              "width": 6
            }
          ]
        },
        {
          "label": "HTML",
          "tag": "h5",
          "className": "font-weight-normal",
          "content": "{{form.subtitle}}",
          "refreshOnChange": false,
          "tableView": false,
          "key": "subtitle",
          "type": "htmlelement",
          "input": false
        },
        {
          "columns": [
            {
              "components": [
                {
                  "label": "Title",
                  "labelPosition": "top",
                  "widget": {
                    "type": "input"
                  },
                  "validate": {
                    "required": false
                  },
                  "key": "name",
                  "type": "textfield",
                  "input": true,
                  "disabled": false,
                  "description": "Set the title of this except date"
                }
              ],
              "width": 6
            },
            {
              "components": [
                {
                  "label": "Academic Year",
                  "description": "Select the academic year that this except date refers to",
                  "labelPosition": "top",
                  "widget": "choicesjs",
                  "dataSrc": "url",
                  "data": {
                    "url": "AcademicYears?$select=id,alternateName&$top=-1&$orderby=id desc",
                    "headers": []
                  },
                  "validate": {
                    "required": true
                  },
                  "template": "{{ item.alternateName }}",
                  "selectValues": "value",
                  "key": "academicYear",
                  "valueProperty": "id",
                  "lazyLoad": true,
                  "type": "select",
                  "input": true
                }
              ],
              "width": 6
            },
            {
              "components": [
                {
                  "label": "Description",
                  "labelPosition": "top",
                  "widget": {
                    "type": "input"
                  },
                  "validate": {
                    "required": false
                  },
                  "key": "description",
                  "type": "textarea",
                  "input": true
                }
              ],
              "width": 12
            },
            {
              "components": [
                {
                  "label": "Auto update the status of events that occur during except hours",
                  "key": "updateEventStatus",
                  "type": "checkbox",
                  "input": true
                }
              ],
              "width": 12
            },
            {
              "components": [
                {
                  "label": "Event Status",
                  "description": "Select the event status that will be assigned to events that occur during except hours",
                  "labelPosition": "top",
                  "widget": "choicesjs",
                  "dataSrc": "url",
                  "data": {
                    "url": "EventStatusTypes?$select=id,alternateName&$top=-1",
                    "headers": []
                  },
                  "validate": {
                    "required": true
                  },
                  "template": "{{ item.alternateName }}",
                  "selectValues": "value",
                  "key": "eventExceptStatus",
                  "valueProperty": "id",
                  "lazyLoad": true,
                  "type": "select",
                  "input": true,
                  "customConditional": "show = data.updateEventStatus"
                }
              ],
              "width": 6
            }
          ],
          "customClass": "text-dark",
          "hideLabel": true,
          "type": "columns",
          "input": false
        }
      ]
    },
    {
      "type": "button",
      "label": "Submit",
      "key": "submit",
      "disableOnInvalid": true,
      "input": true
    }
  ]
}
