{
  "model": "Companies",
  "settings": {
    "i18n": {
      "el": {}
    }
  },
  "components": [{
    "label": "Tabs",
    "type": "tabs",
    "key": "tabs1",
    "path": "tabs1",
    "input": false,
          "components": [{
            "label": "Edit item",
            "components": [{
                "type": "fieldset",
                "components": [
                  {
                    "columns": [
                      {
                        "components": [
                          {
                            "label": "Name",
                            "labelPosition": "top",
                            "widget": {
                              "type": "input"
                            },
                            "validate": {
                              "required": true
                            },
                            "key": "name",
                            "type": "textfield",
                            "input": true,
                            "disabled": false
                          }
                        ],
                        "width": 6
                      },
                      {
                        "components": [
                          {
                            "label": "Profession",
                            "labelPosition": "top",
                            "widget": {
                              "type": "input"
                            },
                            "validate": {
                              "required": false
                            },
                            "key": "profession",
                            "hidden": false,
                            "type": "textfield",
                            "input": true
                          }
                        ],
                        "width": 6
                      },
                      {
                        "components": [
                          {
                            "label": "Description",
                            "labelPosition": "top",
                            "widget": {
                              "type": "input"
                            },
                            "validate": {
                              "required": false
                            },
                            "key": "description",
                            "hidden": true,
                            "type": "textarea",
                            "input": true
                          }
                        ],
                        "width": 12
                      },
                      {
                        "components": [
                          {
                            "label": "VAT Number",
                            "labelPosition": "top",
                            "widget": {
                              "type": "input"
                            },
                            "validate": {
                              "required": false
                            },
                            "key": "vatNumber",
                            "type": "textfield",
                            "input": true,
                            "disabled": false
                          }
                        ],
                        "width": 6
                      },
                      {
                        "components": [
                          {
                            "label": "VAT Office",
                            "labelPosition": "top",
                            "widget": {
                              "type": "input"
                            },
                            "validate": {
                              "required": false
                            },
                            "key": "vatOffice",
                            "type": "textfield",
                            "input": true,
                            "disabled": false
                          }
                        ],
                        "width": 6
                      },
                      {
                        "components": [
                          {
                            "label": "Postal address",
                            "labelPosition": "top",
                            "widget": {
                              "type": "input"
                            },
                            "validate": {
                              "required": false
                            },
                            "key": "address",
                            "type": "textfield",
                            "input": true,
                            "disabled": false
                          }
                        ],
                        "width": 6
                      },
                      {
                        "components": [
                          {
                            "label": "Phone number",
                            "labelPosition": "top",
                            "widget": {
                              "type": "input"
                            },
                            "validate": {
                              "required": false
                            },
                            "key": "phone",
                            "type": "textfield",
                            "input": true,
                            "disabled": false
                          }
                        ],
                        "width": 6
                      },
                      {
                        "components": [
                          {
                            "label": "Email address",
                            "labelPosition": "top",
                            "widget": {
                              "type": "input"
                            },
                            "validate": {
                              "required": false
                            },
                            "key": "email",
                            "type": "textfield",
                            "input": true,
                            "disabled": false
                          }
                        ],
                        "width": 6
                      },
                      {
                        "components": [
                          {
                            "label": "FAX",
                            "labelPosition": "top",
                            "widget": {
                              "type": "input"
                            },
                            "validate": {
                              "required": false
                            },
                            "key": "fax",
                            "type": "textfield",
                            "input": true,
                            "disabled": false
                          }
                        ],
                        "width": 6
                      }
                    ],
                    "customClass": "text-dark",
                    "hideLabel": true,
                    "type": "columns",
                    "input": false
                  }
                ]
              }
              ]
        },
        {
          "legend": "Other languages",
          "key": "fieldSet",
          "type": "fieldset",
          "input": false,
          "label": "Other languages",
          "components": [{
            "label": "",
            "hideLabel": true,
            "key": "locales",
            "type": "datagrid",
            "disableAddingRemovingRows": true,
            "input": true,
            "customClass": "fix-panel-for-locales",
            "components": [{
              "collapsible": false,
              "hideLabel": true,
              "key": "panel",
              "type": "panel",
              "title": "",
              "hideTitle": true,
              "input": false,
              "tableView": false,
              "components": [
                {
                  "label": "Language",
                  "tableView": true,
                  "key": "inLanguage",
                  "disabled": "true",
                  "type": "textfield",
                  "input": true
                },
                {
                "label": "Name",
                "labelPosition": "top",
                "widget": {
                  "type": "input"
                },
                "validate": {
                  "required": false
                },
                "key": "name",
                "type": "textfield",
                "input": true,
                "disabled": false
               },
               {
                 "label": "Profession",
                 "tableView": true,
                 "key": "profession",
                 "type": "textfield",
                 "input": true
               },
               {
                 "label": "Postal address",
                 "tableView": true,
                 "key": "address",
                 "type": "textfield",
                 "input": true
               }
              ]
            }]
          }]
        }
     ]
   }
 ]
}

