{
    "components": [
      {
        "label": "Columns",
        "columns": [
          {
            "components": [
              {
                "label": "Registrations.StudentName",
                "key": "studentName",
                "type": "textfield",
                "input": true
              }
            ],
            "width": 4,
            "offset": 0,
            "push": 0,
            "pull": 0
          },
          {
            "components": [
              {
                "label": "Students.StudentIdentifier.long",
                "key": "studentIdentifier",
                "type": "textfield",
                "input": true
              }
            ],
            "width": 4,
            "offset": 0,
            "push": 0,
            "pull": 0
          },
          {
            "components": [
              {
                "label": "Students.studyProgram",
                "labelPosition": "top",
                "widget": "choicesjs",
                "key": "studyProgram",
                "dataSrc": "url",
                "data": {
                  "url": "StudyPrograms?$top=-1&$skip=0&$filter=department eq '{{form.department}}'",
                  "headers": []
                },
                "template": "{{ item.name }}",
                "selectValues": "value",
                "valueProperty": "id",
                "type": "select",
                "input": true,
                "disabled": false,
                "lazyLoad": false,
                "searchEnabled": true
              }
            ],
            "width": 4,
            "offset": 0,
            "push": 0,
            "pull": 0
          },
          {
            "components": [
              {
                "label": "Students.Specialty",
                "labelPosition": "top",
                "widget": "choicesjs",
                "dataSrc": "url",
                "data": {
                  "url": "/StudyProgramSpecialties?$select=id,name&$filter=studyProgram eq {{data.studyProgram || 0}}",
                  "headers": []
                },
                "dataType": "object",
                "idPath": "id",
                "redrawOn": "studyProgram",
                "lazyLoad": true,
                "clearOnRefresh": true,
                "template": "<span class='d-block pr-5 text-truncate'>{{ item.name }}</span>",
                "selectThreshold": 0.3,
                "key": "studyProgramSpecialty",
                "type": "select",
                "selectValues": "value",
                "input": true

              }
            ],
            "width": 4
          },
          {
            "components": [
              {
                "label": "Students.Semester",
                "widget": {
                  "type": "input"
                },
                "validate": {
                  "pattern": "^\\d+$",
                  "customMessage": "Semester must be an integer and less than 100",
                  "maxLength": "2"
                },
                "key": "semester",
                "type": "textfield",
                "input": true,
                "hideOnChildrenHidden": false
              }
            ],
            "width": 4,
            "offset": 0,
            "push": 0,
            "pull": 0
          },
          {
            "components": [
              {
                "label": "Registrations.StudentStatus",
                "labelPosition": "top",
                "widget": "choicesjs",
                "searchEnabled": false,
                "template": "<span class='d-block pr-5 text-truncate'>{{ item.name }}</span>",
                "type": "select",
                "input": true,
                "dataSrc": "url",
                "data": {
                  "url": "StudentStatuses?$orderby=name",
                  "headers": []
                },
                "key": "studentStatus",
                "valueProperty": "alternateName",
                "selectValues": "value",
                "disableLimit": false,
                "lazyLoad": false,
                "selectThreshold": 0.3
              }
            ],
            "width": 4,
            "offset": 0,
            "push": 0,
            "pull": 0
          }
        ],
        "tableView": false,
        "key": "department",
        "type": "columns",
        "input": false,
        "path": "columns"
      },
      {
        "label": "Columns",
        "columns": [
          {
            "components": [
              {
                "label": "Registrations.Status",
                "labelPosition": "top",
                "widget": "choicesjs",
                "searchEnabled": false,
                "template": "<span class='d-block pr-5 text-truncate'>{{ item.name }}</span>",
                "type": "select",
                "input": true,
                "dataSrc": "url",
                "data": {
                  "url": "PeriodRegistrationStatuses",
                  "headers": []
                },
                "key": "status",
                "valueProperty": "alternateName",
                "selectValues": "value"
              }
            ],
            "width": 4,
            "offset": 0,
            "push": 0,
            "pull": 0
          },
          {
            "components": [
                {
                    "label": "Registrations.AdvancedSearch.AcademicPeriod",
                    "widget": "choicesjs",
                    "dataSrc": "url",
                    "data": {
                      "url": "AcademicPeriods",
                      "headers": []
                    },
                    "selectThreshold": 0.3,
                    "template": "<span class='d-block pr-5 text-truncate'>{{ item.name }}</span>",
                    "key": "registrationPeriod",
                    "valueProperty": "alternateName",
                    "selectValues": "value",
                    "type": "select",
                    "input": true,
                    "searchEnabled": false
                  }
            ],
            "width": 4,
            "offset": 0,
            "push": 0,
            "pull": 0
          },
          {
            "components": [
              {
                "label": "Registrations.AdvancedSearch.AcademicYear",
                    "widget": "choicesjs",
                    "dataSrc": "url",
                    "data": {
                      "url": "AcademicYears/?$top=-1&$orderby=id desc",
                      "headers": []
                    },
                    "selectThreshold": 0.3,
                    "template": "<span class='d-block pr-5 text-truncate'>{{ item.name }}</span>",
                    "key": "registrationYear",
                    "valueProperty": "id",
                    "selectValues": "value",
                    "type": "select",
                    "input": true,
                    "searchEnabled": false
              }
            ],
            "width": 4,
            "offset": 0,
            "push": 0,
            "pull": 0
          },
          {
            "components": [
              {
                "label": "Students.InscriptionMode",
                "widget": "choicesjs",
                "dataSrc": "url",
                "data": {
                  "url": "InscriptionModes?$top=-1&$orderby=id desc",
                  "headers": []
                },
                "selectThreshold": 0.3,
                "validate": {
                  "unique": false,
                  "multiple": false
                },
                "template": "{{ item.name }}",
                "key": "inscriptionMode",
                "valueProperty": "id",
                "selectValues": "value",
                "type": "select",
                "input": true,
                "hideOnChildrenHidden": false,
                "disableLimit": false,
                "lazyLoad": false
              }
            ],
            "width": 5,
            "offset": 0,
            "push": 0,
            "pull": 0
          },
          {
            "components": [
              {
                "label": "Registrations.PeriodRegistrationType",
                "widget": "choicesjs",
                "dataSrc": "url",
                "data": {
                  "url": "PeriodRegistrationTypes?$top=-1&$orderby=id asc",
                  "headers": []
                },
                "selectThreshold": 0.3,
                "validate": {
                  "unique": false,
                  "multiple": false
                },
                "template": "{{ item.name }}",
                "key": "registrationType",
                "valueProperty": "id",
                "selectValues": "value",
                "type": "select",
                "input": true,
                "hideOnChildrenHidden": false,
                "disableLimit": false,
                "lazyLoad": false
              }
            ],
            "width": 5,
            "offset": 0,
            "push": 0,
            "pull": 0
          },
          {
            "components": [
              {
                "label": "Registrations.WithClasses",
                "widget": "choicesjs",
                "data": {
                  "values": [
                    {
                      "label": "No",
                      "value": -1
                    },
                    {
                      "label": "Yes",
                      "value": 1
                    }
                  ]
                },
                "selectThreshold": 0.3,
                "validate": {
                  "unique": false,
                  "multiple": false
                },
                "key": "hasClasses",
                "valueProperty": "value",
                "selectValues": "value",
                "type": "select",
                "input": true,
                "searchEnabled": false,
                "hideOnChildrenHidden": false,
                "disableLimit": false,
                "lazyLoad": false
              }
            ],
            "width": 4,
            "offset": 0,
            "push": 0,
            "pull": 0
          }
        ],
        "tableView": false,
        "key": "columns1",
        "type": "columns",
        "input": false,
        "path": "columns1"
      }
    ]
  }
