{
  "title": "Users.CurrentViewers",
  "model": "Users",
  "searchExpression":"indexof(alternateName, '${text}') ge 0",
  "selectable": true,
  "multipleSelect": true,
  "columns": [
    {
      "name":"viewers/id",
      "property": "id",
      "title":"Candidates.Viewers.Id",
      "hidden": true,
      "sortable": false
    },
    {
      "name":"viewers/name",
      "property": "name",
      "title":"Candidates.Username",
      "sortable": false
    },
    {
      "name": "viewers/alternateName",
      "property": "alternateName",
      "title":"Candidates.Viewers.FullName",
      "sortable": false
    }
  ],
  "defaults":{
    
  },
  "criteria": [
    
  ],
  "paths" : [
    
  ]
}
