{
  "model": "StudentInformations",
  "settings": {
    "i18n": {
      "el": {
        "Is published" : "Δημοσιευμένη",
        "Additional info": "Επιπλέον πληροφορίες",
        "Student": "Φοιτητής",
        "Info type": "Τύπος πληροφορίας",
        "Select the information type": "Επιλέξτε τον τύπο της πληροφορίας",
        "Protocol Number": "Αριθμός πρωτοκόλλου",
        "Date": "Ημερομηνία",
        "Select whether this information is for not just for internal use": "Επιλέξτε αν η πληροφορία αυτή δεν είναι μόνο για εσωτερική χρήση",
        "In progress": "Σε εξέλιξη",
        "Completed": "Ολοκληρώθηκε",
        "Set a description": "Ορίστε μια περιγραφή",
        "Set protocol number, if exists": "Ορίστε τον αριθμό πρωτοκόλλου, εφόσον υπάρχει"
      }
    }
  },
  "components": [
    {
      "type": "fieldset",
      "legend": "Additional info",
      "components": [
        {
          "columns": [
            {
              "components": [
                {
                  "label": "Student",
                  "customConditional": "show = (data.student)",
                  "calculateValue": "value =\" (\" + data.student.studentIdentifier + \") \" + data.student.person.familyName + \" \" + data.student.person.givenName",
                  "labelPosition": "top",
                  "widget": {
                    "type": "label"
                  },
                  "type": "textfield",
                  "input": false,
                  "disabled": true
                }
              ],
              "width": 6,
              "offset": 0,
              "push": 0,
              "pull": 0
            }
          ],
          "customClass": "text-dark",
          "hideLabel": true,
          "type": "columns",
          "input": false
        },
        {
          "columns": [
            {
              "components": [
                {
                  "label": "Info type",
                  "labelPosition": "top",
                  "dataSrc": "url",
                  "customConditional": "show = (data.student)",
                  "data": {
                    "url": "StudentInfoTypes/?$top={{limit}}&$skip={{skip}}&$orderby=name&$filter=indexof(name, '{{encodeURIComponent(search||'')}}') ge 0",
                    "headers": []
                  },
                  "validate": {
                    "required": true
                  },
                  "searchField": "search",
                  "searchEnabled": true,
                  "selectThreshold": 0.3,
                  "limit": 50,
                  "template": "<span class='d-block pr-5 text-truncate'>{{ item.name }}</span>",
                  "selectValues": "value",
                  "widget": "choicesjs",
                  "key": "infoType",
                  "dataType": "object",
                  "idPath": "id",
                  "type": "select",
                  "input": true,
                  "description": "Select the information type"
                }
              ],
              "width": 4
            },
            {
              "components": [
                {
                  "label": "Date",
                  "useLocaleSettings": true,
                  "tableView": false,
                  "enableMinDateInput": false,
                  "validate": {
                    "required": true
                  },
                  "datePicker": {
                    "disableWeekends": false,
                    "disableWeekdays": false
                  },
                  "enableMaxDateInput": false,
                  "enableTime": false,
                  "key": "infoDate",
                  "type": "datetime",
                  "input": true,
                  "widget": {
                    "type": "calendar",
                    "displayInTimezone": "viewer",
                    "locale": "en",
                    "useLocaleSettings": true,
                    "allowInput": true,
                    "mode": "single",
                    "enableTime": false,
                    "noCalendar": false,
                    "format": "yyyy-MM-dd",
                    "hourIncrement": 1,
                    "minuteIncrement": 1,
                    "time_24hr": false,
                    "disableWeekends": false,
                    "disableWeekdays": false
                  }
                }
              ],
              "width": 4,
              "offset": 0,
              "push": 0,
              "pull": 0
            },
            {
              "components": [
                {
                  "label": "Description",
                  "labelPosition": "top",
                  "widget": {
                    "type": "input"
                  },
                  "validate": {
                    "required": true,
                    "maxLength": 255
                  },
                  "key": "description",
                  "type": "textfield",
                  "input": true,
                  "description": "Set a description"
                }
              ],
              "width": 12
            },
            {
              "components": [
                {
                  "label": "Protocol Number",
                  "labelPosition": "top",
                  "widget": {
                    "type": "input"
                  },
                  "validate": {
                    "required": false,
                    "maxLength": 50
                  },
                  "key": "protocolNumber",
                  "type": "textfield",
                  "input": true,
                  "description": "Set protocol number, if exists"
                }
              ],
              "width": 4
            },
            {
              "components": [
                {
                  "label": "Status",
                  "labelPosition": "top",
                  "widget": "choicesjs",
                  "searchEnabled": false,
                  "data": {
                    "values": [
                      {
                        "label": "In progress",
                        "value": "1"
                      },
                      {
                        "label": "Completed",
                        "value": "2"
                      }
                    ]
                  },
                  "dataType": "string",
                  "validate": {
                    "required": true
                  },
                  "selectThreshold": 0.3,
                  "key": "status",
                  "type": "select",
                  "input": true,
                  "defaultValue": "1"
                }
              ],
              "width": 3
            },
            {
              "components": [
                {
                  "label": "Is published",
                  "tableView": true,
                  "key": "published",
                  "type": "checkbox",
                  "input": true,
                  "description": "Select whether this information is for not just for internal use"
                }
              ],
              "width": 12,
              "offset": 0,
              "push": 0,
              "pull": 0
            },
            {
              "components": [
                {
                  "label": "Notes",
                  "labelPosition": "top",
                  "widget": {
                    "type": "input"
                  },
                  "validate": {
                    "required": false
                  },
                  "key": "notes",
                  "type": "textarea",
                  "input": true
                }
              ],
              "width": 12
            }
          ],
          "customClass": "text-dark",
          "hideLabel": true,
          "type": "columns",
          "input": false
        }
      ]
    },
    {
      "type": "button",
      "label": "Submit",
      "key": "submit",
      "disableOnInvalid": true,
      "input": true
    }
  ]
}
