{
  "model": "Courses",
  "settings": {
    "i18n": {
      "el": {
        "Course Area": "Γνωστικό αντικείμενο",
        "This is the unique code of the course": "Αυτός είναι ο μοναδικός αναγνωριστικός κωδικός του μαθήματος",
        "This is the display code which will be shown in transcripts, student course registration and online.": "Αυτός είναι ο κωδικός εμφάνισης του μαθήματος, ο οποίος εμφανίζεται στις αναλυτικές βαθμολογίες, τις δηλώσεις μαθήματων και στο διαδίκτυο.",
        "This is the course title.": "Αυτός είναι ο τίτλος του μαθήματος.",
        "Set the subtitle of the course. This field is optional": "Ορίστε τον υπότιτλο του μαθήματος. Αυτό το πεδίο είναι προαιρετικό",
        "Select if this course will be active or has been discontinued. If active, you will be able to add it to study programs, created classes for the course.": "Επιλέξτε εάν το μάθημα θα είναι ενεργό ή έχει καταργηθεί. Εάν είναι ενεργό, θα μπορείτε να το προσθέσετε σε προγράμματα σπουδών, να δημιουργήσετε τάξεις για αυτό.",
        "Set the number of units the course offers if passed.": "Ορίστε τον αριθμό των διδακτικών μονάδων που προσφέρει το μάθημα εάν περαστεί.",
        "Set the number of ECTS the course offers if passed.": "Ορίστε τον αριθμό των ECTS που προσφέρει το μάθημα εάν περαστεί.",
        "Select if the course will be shared. If yes, other departments will also be able to add this course to one of their study programs. If not, it will only be visible in your department": "Επιλέξτε εάν το μάθημα θα είναι κοινό. Εάν ναι, άλλα τμήματα θα μπορούν να προσθέσουν το μάθημα αυτό στα προγράμματα σπουδών τους. Εάν όχι, θα είναι διαθέσιμο μόνο στο τμήμα σας.",
        "Select if the course belongs to your institute": "Επιλέξτε εάν το μάθημα αυτό ανήκει στο ίδρυμα σας.",
        "Select if this course is counted in registration rules.": "Επιλέξτε εάν το μάθημα μετράει στους κανόνες δήλωσης μαθημάτων.",
        "Select the department this course will belong to. It defaults to your current department.": "Επιλέξτε το τμήμα στο οποίο θα ανήκει το μάθημα. Η προεπιλογή είναι το ενεργό τμήμα σας.",
        "Select the scientific supervising instructor of the course.": "Ορίστε τον επιστημονικό επιβλέποντα του μαθήματος.",
        "Select the structure of the course. It can not be edited after course creation. The course has to be substituted by another course, with the same details and a different structure.": "Επιλέξτε την δομή του μαθήματος. Το πεδίο αυτό δεν μπορεί να αλλάξει μετά την δημιουργία του μαθήματος. Θα πρέπει να αντικατασταθεί από άλλο μάθημα με τις ίδιες ιδιότητες και διαφορετική δομή.",
        "The only allowed special characters are \"-\" and \".\". The field is required and can have 18 characters maximum.": "Το πεδίο είναι υποχρεωτικό (μέγιστο 18 χαρακτήρες). Δεν επιτρέπονται κενά και από τους ειδικούς χαρακτήρες επιτρέπονται μόνο η τελεία (\".\") και η παύλα (\"-\")."
      }
    }
  },
  "components": [
    {
      "type": "fieldset",
      "legend": "Course info",
      "components": [
        {
          "columns": [
            {
              "components": [
                {
                  "label": "ID",
                  "labelPosition": "top",
                  "widget": {
                    "type": "input"
                  },
                  "validate": {
                    "required": true,
                    "pattern": "^[^`~!@#$%^&*()_|+=?;:'\",<>\\{\\}΄\\[\\]\\\\\/ ]+$",
                    "customMessage": "The only allowed special characters are \"-\" and \".\". The field is required and can have 18 characters maximum.",
                    "maxLength": 18
                  },
                  "key": "id",
                  "type": "textfield",
                  "input": true,
                  "disabled": false,
                  "description": "This is the unique code of the course"
                }
              ],
              "width": 6
            },
            {
              "components": [
                {
                  "label": "Course display code",
                  "labelPosition": "top",
                  "widget": {
                    "type": "input"
                  },
                  "validate": {
                    "required": true
                  },
                  "key": "displayCode",
                  "type": "textfield",
                  "input": true,
                  "disabled": false,
                  "description": "This is the display code which will be shown in transcripts, student course registration and online."
                }
              ],
              "width": 6
            },
            {
              "components": [
                {
                  "label": "Course Name",
                  "labelPosition": "top",
                  "widget": {
                    "type": "input"
                  },
                  "validate": {
                    "required": true
                  },
                  "key": "name",
                  "type": "textfield",
                  "input": true,
                  "description": "This is the course title."
                }
              ],
              "width": 12
            },
            {
              "components": [
                {
                  "label": "Subtitle",
                  "labelPosition": "top",
                  "widget": {
                    "type": "input"
                  },
                  "validate": {
                    "required": false
                  },
                  "key": "subtitle",
                  "type": "textfield",
                  "input": true,
                  "description": "Set the subtitle of the course. This field is optional"
                }
              ],
              "width": 6
            },
            {
              "components": [
                {
                  "label": "Enabled",
                  "labelPosition": "top",
                  "widget": "choicesjs",
                  "searchEnabled": false,
                  "data": {
                    "values": [
                      {
                        "label": "No",
                        "value": "false"
                      },
                      {
                        "label": "Yes",
                        "value": "true"
                      }
                    ]
                  },
                  "dataType": "string",
                  "validate": {
                    "required": true
                  },
                  "selectThreshold": 0.3,
                  "key": "isEnabled",
                  "selectValues": "value",
                  "type": "select",
                  "input": true,
                  "defaultValue" : "true",
                  "description": "Select if this course will be active or has been discontinued. If active, you will be able to add it to study programs, created classes for the course."
                }
              ],
              "width": 3
            },
            {
              "components": [
                {
                  "label": "Units",
                  "labelPosition": "top",
                  "widget": {
                    "type": "input"
                  },
                  "validate": {
                    "required": false,
                    "min": 0
                  },
                  "key": "units",
                  "type": "number",
                  "input": true,
                  "description": "Set the number of units the course offers if passed."
                }
              ],
              "width": 3
            },
            {
              "components": [
                {
                  "label": "ECTS",
                  "labelPosition": "top",
                  "widget": {
                    "type": "input"
                  },
                  "validate": {
                    "required": false,
                    "min": 0
                  },
                  "key": "ects",
                  "type": "number",
                  "input": true,
                  "description": "Set the number of ECTS the course offers if passed."
                }
              ],
              "width": 3
            },
            {
              "components": [
                {
                  "label": "Shared",
                  "labelPosition": "top",
                  "widget": "choicesjs",
                  "tableView" : true,
                  "data": {
                    "values": [
                      {
                        "label": "No",
                        "value": "false"
                      },
                      {
                        "label": "Yes",
                        "value": "true"
                      }
                    ]
                  },
                  "validate": {
                    "required": true
                  },
                  "dataType": "string",
                  "selectThreshold": 0.3,
                  "key": "isShared",
                  "type": "select",
                  "input": true,
                  "defaultValue": "false",
                  "description": "Select if the course will be shared. If yes, other departments will also be able to add this course to one of their study programs. If not, it will only be visible in your department"
                }
              ],
              "width": 3
            },
            {
              "components": [
                {
                  "label": "Local",
                  "labelPosition": "top",
                  "widget": "choicesjs",
                  "searchEnabled": false,
                  "data": {
                    "values": [
                      {
                        "label": "No",
                        "value": "false"
                      },
                      {
                        "label": "Yes",
                        "value": "true"
                      }
                    ]
                  },
                  "dataType": "string",
                  "validate": {
                    "required": true
                  },
                  "selectThreshold": 0.3,
                  "key": "isLocal",
                  "type": "select",
                  "input": true,
                  "defaultValue": "true",
                  "description": "Select if the course belongs to your institute"
                }
              ],
              "width": 3
            },
            {
              "components": [
                {
                  "label": "Grade Scale",
                  "labelPosition": "top",
                  "widget": "choicesjs",
                  "searchEnabled": true,
                  "dataSrc": "url",
                  "data": {
                    "values": [],
                    "url": "/GradeScales?$top=-1&$skip=0&$select=id,name"
                  },
                  "validate": {
                    "required": true
                  },
                  "selectThreshold": 0.3,
                  "lazyLoad": false,
                  "template": "{{ item.name }}",
                  "valueProperty": "id",
                  "selectValues": "value",
                  "key": "gradeScale",
                  "type": "select",
                  "input": true
                }
              ],
              "width": 3
            },
            {
              "components": [
                {
                  "label": "Course URL",
                  "labelPosition": "top",
                  "widget": {
                    "type": "input"
                  },
                  "validate": {
                    "required": false
                  },
                  "key": "courseUrl",
                  "type": "url",
                  "input": true
                }
              ],
              "width": 3
            },
            {
              "components": [
                {
                  "label": "Calculated In Registration",
                  "labelPosition": "top",
                  "widget": "choicesjs",
                  "searchEnabled": false,
                  "data": {
                    "values": [
                      {
                        "label": "No",
                        "value": "false"
                      },
                      {
                        "label": "Yes",
                        "value": "true"
                      }
                    ]
                  },
                  "validate": {
                    "required": true
                  },
                  "selectThreshold": 0.3,
                  "key": "calculatedInRegistration",
                  "type": "select",
                  "input": true,
                  "defaultValue": "true",
                  "description": "Select if this course is counted in registration rules."
                }
              ],
              "width": 3
            },
            {
              "components": [
                {
                  "label": "Calculated In Scholarship",
                  "labelPosition": "top",
                  "widget": "choicesjs",
                  "searchEnabled": false,
                  "data": {
                    "values": [
                      {
                        "label": "No",
                        "value": "false"
                      },
                      {
                        "label": "Yes",
                        "value": "true"
                      }
                    ]
                  },
                  "validate": {
                    "required": true
                  },
                  "selectThreshold": 0.3,
                  "key": "isCalculatedInScholarship",
                  "type": "select",
                  "input": true,
                  "defaultValue": "true"
                }
              ],
              "width": 3
            },
            {
              "components": [
                {
                  "label": "Notes",
                  "labelPosition": "top",
                  "widget": {
                    "type": "input"
                  },
                  "validate": {
                    "required": false
                  },
                  "key": "notes",
                  "type": "textarea",
                  "input": true
                }
              ],
              "width": 12
            }
          ],
          "customClass": "text-dark",
          "hideLabel": true,
          "type": "columns",
          "input": false
        }
      ]
    },
    {
      "legend": "Details",
      "type": "fieldset",
      "components": [
        {
          "columns": [
            {
              "components": [
                {
                  "label": "Department",
                  "widget": "choicesjs",
                  "dataSrc": "url",
                  "defaultValue": "",
                  "labelPosition": "top",
                  "customConditional": "show = !!data.department;",
                  "data": {
                    "url": "/LocalDepartments?$top=1&$skip=0&$select=id,name&$filter=id eq {{data.department}}",
                    "headers": []
                  },
                  "validate": {
                    "required": false
                  },
                  "valueProperty": "id",
                  "lazyLoad": false,
                  "dataType": "string",
                  "template": "{{ item.name }}",
                  "selectThreshold": 0.3,
                  "key": "department",
                  "type": "select",
                  "selectValues": "value",
                  "input": true,
                  "disabled" : true,
                  "description": "Select the department this course will belong to. It defaults to your current department."
                }
              ],
              "width": 6
            },
            {
              "components": [
                {
                  "label": "Instructor",
                  "widget": "choicesjs",
                  "dataSrc": "url",
                  "defaultValue": "",
                  "labelPosition": "top",
                  "data": {
                    "values": [],
                    "url": "/Instructors?$top={{limit}}&$skip={{skip}}&$select=id,familyName,givenName,department/name as departmentName&$filter=indexof(familyName, '{{encodeURIComponent(search||'')}}') ge 0",
                    "headers": []
                  },
                  "lazyLoad": true,
                  "searchField": "search",
                  "searchEnabled": true,
                  "selectThreshold": 1,
                  "limit": 20,
                  "validate": {
                    "required": false
                  },
                  "dataType": "object",
                  "idPath": "id",
                  "template": "{{ item.familyName }} {{ item.givenName }} - {{ item.departmentName }}",
                  "key": "instructor",
                  "type": "select",
                  "selectValues": "value",
                  "input": true,
                  "description": "Select the scientific supervising instructor of the course."
                }
              ],
              "width": 6
            },
            {
              "components": [
                {
                  "label": "Course Area",
                  "widget": "choicesjs",
                  "dataSrc": "url",
                  "labelPosition": "top",
                  "data": {
                    "url": "/CourseAreas?$top=-1&$skip=0&$select=id,name&$filter=department eq {{data.department}}",
                    "headers": []
                  },
                  "validate": {
                    "required": false
                  },
                  "lazyLoad": false,
                  "dataType": "object",
                  "template": "{{ item.name }}",
                  "idPath": "id",
                  "selectThreshold": 0.3,
                  "key": "courseArea",
                  "type": "select",
                  "selectValues": "value",
                  "customConditional": "show = !!data.department;",
                  "input": true
                }
              ],
              "width": 6
            },
            {
              "components": [
                {
                  "label": "Sector",
                  "widget": "choicesjs",
                  "dataSrc": "url",
                  "labelPosition": "top",
                  "data": {
                    "url": "/CourseSectors?$top=-1&$skip=0&$select=id,name&$filter=department eq {{data.department}}",
                    "headers": []
                  },
                  "validate": {
                    "required": false
                  },
                  "lazyLoad": false,
                  "dataType": "object",
                  "template": "{{ item.name }}",
                  "idPath": "id",
                  "selectThreshold": 0.3,
                  "key": "courseSector",
                  "type": "select",
                  "selectValues": "value",
                  "customConditional": "show = !!data.department;",
                  "input": true
                }
              ],
              "width": 3
            },
            {
              "components": [
                {
                  "label": "Course Structure Type",
                  "labelPosition": "top",
                  "widget": "choicesjs",
                  "searchEnabled": false,
                  "dataSrc": "url",
                  "data": {
                    "values": [],
                    "url": "/CourseStructureTypes?$top=-1&$skip=0&$select=id,name"
                  },
                  "dataType": "string",
                  "validate": {
                    "required": false
                  },
                  "selectThreshold": 0.3,
                  "lazyLoad": false,
                  "template": "{{ item.name }}",
                  "valueProperty": "id",
                  "selectValues": "value",
                  "defaultValue" : 1,
                  "key": "courseStructureType",
                  "type": "select",
                  "input": true,
                  "disabled" : true,
                  "description": "Select the structure of the course. It can not be edited after course creation. The course has to be substituted by another course, with the same details and a different structure."
                }
              ],
              "width": 3
            },
            {
              "components": [
                {
                  "label": "State",
                  "labelPosition": "top",
                  "widget": {
                    "type": "custom"
                  },
                  "key": "$state",
                  "type": "number",
                  "input": true,
                  "disabled": false,
                  "clearOnHide": false,
                  "lazyLoad": true,
                  "hidden": true
                }
              ],
              "width": 3
            },
            {
              "components": [
                {
                  "label": "MaxNumberOfRemarking",
                  "labelPosition": "top",
                  "widget": {
                    "type": "input"
                  },
                  "dataType": "string",
                  "key": "maxNumberOfRemarking",
                  "type": "textfield",
                  "input": true,
                  "disabled": false,
                  "tableView" : true,
                  "hidden": true
                }
              ],
              "width": 3
            }
          ],
          "customClass": "text-dark",
          "hideLabel": true,
          "type": "columns",
          "input": false
        }
      ]
    },
    {
      "type": "button",
      "label": "Submit",
      "key": "submit",
      "disableOnInvalid": true,
      "input": true
    }
  ]
}
