{
    "title": "Students.Informationss",
    "model": "StudentInformations",
    "searchExpression": "(indexof(subject, '${text}') ge 0 or indexof(notes, '${text}') ge 0)",
    "selectable": true,
    "multipleSelect": true,
    "columns": [
      {
        "name": "description",
        "property": "description",
        "title": "Requests.Preview.Description"
      },
      {
        "name": "infoType/name",
        "property": "type",
        "title": "Students.InfoType"
      },
      {
        "name": "infoDate",
        "property": "infoDate",
        "title": "Students.Date",
        "formatter": "DateTimeFormatter",
        "formatString": "shortDate"
      },
      {
        "name": "published",
        "property": "published",
        "title": "Requests.Published",
        "formatters": [
          {
            "formatter": "TrueFalseFormatter"
          },
          {
            "formatter": "NgClassFormatter",
            "formatOptions": {
              "ngClass": {
                "text-success": "${published}",
                "text-danger": "${!published}"
              }
            }
          }
        ]
      },
      {
        "name":"id",
        "hidden": "true"
      },
      {
        "name": "student/id",
        "property": "studentId",
        "formatter": "ButtonFormatter",
        "formatString": "#/students/${studentId}/dashboard/informations/(modal:${id}/edit)",
        "className": "text-center",
        "formatOptions": {
          "buttonContent": "<i class=\"far fa-edit text-indigo\"></i>",
          "buttonClass": "btn btn-default"
        }
      }
    ],
    "defaults":{
      "orderBy": "infoDate desc"
    }
  }
